<svg width="45" height="44" viewBox="0 0 45 44" fill="none" xmlns="http://www.w3.org/2000/svg">
<rect x="0.537109" y="0.5" width="43" height="43" rx="21.5" fill="#D30975"/>
<rect x="0.537109" y="0.5" width="43" height="43" rx="21.5" stroke="#E1EDF2"/>
<path d="M17.8371 12H26.2371C29.4371 12 32.0371 14.6 32.0371 17.8V26.2C32.0371 27.7383 31.426 29.2135 30.3383 30.3012C29.2506 31.3889 27.7754 32 26.2371 32H17.8371C14.6371 32 12.0371 29.4 12.0371 26.2V17.8C12.0371 16.2617 12.6482 14.7865 13.7359 13.6988C14.8236 12.6111 16.2989 12 17.8371 12ZM17.6371 14C16.6823 14 15.7667 14.3793 15.0915 15.0544C14.4164 15.7295 14.0371 16.6452 14.0371 17.6V26.4C14.0371 28.39 15.6471 30 17.6371 30H26.4371C27.3919 30 28.3076 29.6207 28.9827 28.9456C29.6578 28.2705 30.0371 27.3548 30.0371 26.4V17.6C30.0371 15.61 28.4271 14 26.4371 14H17.6371ZM27.2871 15.5C27.6186 15.5 27.9366 15.6317 28.171 15.8661C28.4054 16.1005 28.5371 16.4185 28.5371 16.75C28.5371 17.0815 28.4054 17.3995 28.171 17.6339C27.9366 17.8683 27.6186 18 27.2871 18C26.9556 18 26.6376 17.8683 26.4032 17.6339C26.1688 17.3995 26.0371 17.0815 26.0371 16.75C26.0371 16.4185 26.1688 16.1005 26.4032 15.8661C26.6376 15.6317 26.9556 15.5 27.2871 15.5ZM22.0371 17C23.3632 17 24.635 17.5268 25.5726 18.4645C26.5103 19.4021 27.0371 20.6739 27.0371 22C27.0371 23.3261 26.5103 24.5979 25.5726 25.5355C24.635 26.4732 23.3632 27 22.0371 27C20.711 27 19.4393 26.4732 18.5016 25.5355C17.5639 24.5979 17.0371 23.3261 17.0371 22C17.0371 20.6739 17.5639 19.4021 18.5016 18.4645C19.4393 17.5268 20.711 17 22.0371 17ZM22.0371 19C21.2415 19 20.4784 19.3161 19.9158 19.8787C19.3532 20.4413 19.0371 21.2044 19.0371 22C19.0371 22.7956 19.3532 23.5587 19.9158 24.1213C20.4784 24.6839 21.2415 25 22.0371 25C22.8328 25 23.5958 24.6839 24.1584 24.1213C24.721 23.5587 25.0371 22.7956 25.0371 22C25.0371 21.2044 24.721 20.4413 24.1584 19.8787C23.5958 19.3161 22.8328 19 22.0371 19Z" fill="white"/>
</svg>
