<svg width="26" height="26" viewBox="0 0 26 26" fill="none" xmlns="http://www.w3.org/2000/svg">
<path d="M13.1577 0.315613C6.07399 0.315613 0.315552 6.07405 0.315552 13.1578C0.315552 20.2416 6.07399 26 13.1577 26C20.2415 26 25.9999 20.2416 25.9999 13.1578C25.9999 6.07405 20.2415 0.315613 13.1577 0.315613ZM13.1577 1.76935C19.435 1.76935 24.5462 6.88054 24.5462 13.1578C24.5462 15.9317 23.5445 18.4796 21.8904 20.4573C19.8717 18.2176 17.4111 16.1526 13.1577 16.1526C8.90441 16.1526 6.44899 18.2228 4.45074 20.4316L4.42506 20.4573C2.77098 18.4796 1.76929 15.9369 1.76929 13.1578C1.76929 6.88054 6.88048 1.76935 13.1577 1.76935Z" fill="#BFA654"/>
<path d="M13.1578 15.4828C15.3763 15.4828 17.1747 13.7464 17.1747 11.6044C17.1747 9.4625 15.3763 7.7261 13.1578 7.7261C10.9394 7.7261 9.14099 9.4625 9.14099 11.6044C9.14099 13.7464 10.9394 15.4828 13.1578 15.4828Z" fill="#BFA654"/>
</svg>
